1,17
2,14
3,3
4,19
5,9
6,18
7,18
8,17
9,18
10,14
11,12
12,12
13,19
14,12
15,24
16,9
17,18
18,12
19,18
20,18
21,18
22,3
23,9
24,19
25,3
26,3
27,9
28,12
29,7
30,14
31,14
32,19
33,18
34,14
35,19
36,12
37,14
38,12
39,14
40,19
41,18
42,17
43,3
44,17
45,18
46,7
47,17
48,17
49,12
50,18
51,3
52,14
53,17
54,17
55,12
56,9
57,7
58,12
59,19
60,18
61,12
62,18
63,18
64,9
65,12
66,7
67,14
68,9
69,12
70,14
71,18
72,18
73,17
74,12
75,7
76,3
77,3
78,17
79,18
80,19
81,9
82,18
83,19
84,9
85,3
86,14
87,14
88,18
89,9
90,9
91,14
92,12
93,3
94,18
95,12
96,18
97,3
98,18
99,12
100,18
101,18
102,9
103,14
104,7
105,19
106,14
107,3
108,3
109,6
110,19
111,12
112,7
113,18
114,12
115,18
116,14
117,18
118,18
119,14
120,12
121,9
122,14
123,18
124,3
125,9
126,18
127,12
128,9
129,18
130,17
131,12
132,14
133,9
134,3
135,1
136,12
137,14
138,19
139,9
140,9
141,3
142,6
143,17
144,12
145,12
146,19
147,9
148,18
149,19
150,18
151,12
152,7
153,19
154,9
155,9
156,17
157,18
158,12
159,3
160,12
161,12
162,19
163,18
164,9
165,12
166,19
167,24
168,3
169,19
170,3
171,19
172,17
173,12
174,12
175,12
176,12
177,7
178,18
179,14
180,19
181,7
182,17
183,17
184,12
185,3
186,18
187,12
188,19
189,19
190,9
191,18
192,3
193,18
194,12
195,14
196,12
197,17
198,18
199,14
200,12
201,19
202,18
203,19
204,7
205,12
206,18
207,19
208,12
209,19
210,12
211,19
212,7
213,19
214,3
215,9
216,18
217,19
218,7
219,12
220,18
221,17
222,19
223,18
224,9
225,9
226,12
227,12
228,19
229,19
230,18
231,12
232,9
233,12
234,3
235,12
236,18
237,12
238,12
239,18
240,12
241,14
242,14
243,12
244,3
245,17
246,14
247,14
248,18
249,2
250,18
251,3
252,17
253,7
254,3
255,9
256,12
257,14
258,14
259,18
260,14
261,14
262,14
263,12
264,19
265,18
266,18
267,7
268,7
269,14
270,3
271,9
272,9
273,14
274,12
275,18
276,19
277,12
278,19
279,12
280,12
281,9
282,14
283,14
284,18
285,12
286,17
287,18
288,7
289,18
290,18
291,12
292,19
293,7
294,14
295,14
296,9
297,3
298,3
299,12
300,18
301,9
302,12
303,18
304,19
305,14
306,18
307,18
308,19
309,9
310,9
311,14
312,17
313,18
314,12
315,19
316,18
317,14
318,12
319,12
320,3
321,19
322,14
323,9
324,7
325,18
326,14
327,3
328,3
329,12
330,19
331,18
332,4
333,9
334,12
335,18
336,14
337,12
338,17
339,14
340,19
341,9
342,17
343,17
344,12
345,14
346,17
347,9
348,7
349,17
350,12
351,19
352,18
353,14
354,18
355,9
356,18
357,18
358,19
359,7
360,17
361,3
362,7
363,3
364,6
365,19
366,12
367,18
368,18
369,14
370,18
371,18
372,3
373,14
374,12
375,12
376,3
377,17
378,19
379,18
380,3
381,19
382,3
383,12
384,12
385,14
386,12
387,18
388,3
389,14
390,17
391,12
392,9
393,19
394,17
395,12
396,9
397,14
398,19
399,19
400,18
401,3
402,9
403,3
404,18
405,19
406,3
407,3
408,3
409,14
410,3
411,7
412,18
413,18
414,12
415,18
416,12
417,7
418,3
419,18
420,3
421,9
422,18
423,14
424,9
425,18
426,9
427,18
428,9
429,3
430,18
431,12
432,19
433,3
434,19
435,12
436,12
437,3
438,14
439,3
440,9
441,19
442,18
443,12
444,19
445,18
446,19
447,18
448,12
449,18
450,12
451,9
452,12
453,14
454,14
455,12
456,7
457,12
458,14
459,12
460,12
461,12
462,12
463,3
464,3
465,12
466,19
467,12
468,19
469,14
470,2
471,3
472,12
473,9
474,18
475,18
476,7
477,17
478,18
479,18
480,12
481,9
482,12
483,3
484,3
485,18
486,3
487,9
488,12
489,17
490,19
491,9
492,9
493,18
494,14
495,19
496,12
497,17
498,17
499,18
500,3
501,18
502,3
503,12
504,12
505,9
506,17
507,18
508,18
509,3
510,7
511,3
512,19
513,17
514,3
515,9
516,17
517,17
518,12
519,3
520,19
521,12
522,19
523,4
524,3
525,18
526,9
527,18
528,12
529,7
530,9
531,3
532,17
533,12
534,17
535,14
536,17
537,14
538,9
539,19
540,19
541,18
542,14
543,9
544,7
545,7
546,19
547,3
548,9
549,19
550,12
551,19
552,12
553,3
554,17
555,14
556,18
557,19
558,17
559,9
560,19
561,9
562,18
563,18
564,7
565,3
566,9
567,12
568,3
569,9
570,19
571,19
572,9
573,18
574,9
575,19
576,18
577,14
578,14
579,9
580,9
581,17
582,18
583,17
584,12
585,9
586,12
587,12
588,9
589,19
590,12
591,19
592,18
593,3
594,19
595,17
596,19
597,12
598,12
599,9
600,3
601,14
602,12
603,18
604,9
605,9
606,2
607,9
608,14
609,9
610,9
611,9
612,9
613,14
614,3
615,18
616,18
617,7
618,17
619,9
620,12
621,18
622,12
623,19
624,19
625,19
626,12
627,7
628,12
629,17
630,7
631,12
632,12
633,12
634,12
635,9
636,18
637,17
638,12
639,18
640,12
641,17
642,12
643,18
644,7
645,17
646,18
647,17
648,9
649,14
650,18
651,17
652,18
653,18
654,14
655,14
656,12
657,12
658,14
659,7
660,7
661,12
662,12
663,12
664,18
665,18
666,19
667,7
668,18
669,14
670,18
671,9
672,18
673,17
674,12
675,18
676,9
677,12
678,14
679,7
680,9
681,7
682,12
683,24
684,7
685,18
686,18
687,18
688,12
689,3
690,12
691,12
692,7
693,7
694,12
695,3
696,7
697,12
698,18
699,9
700,9
701,18
702,18
703,17
704,7
705,17
706,19
707,7
708,3
709,12
710,9
711,14
712,19
713,12
714,7
715,18
716,7
717,12
718,14
719,18
720,18
721,19
722,7
723,18
724,19
725,9
726,19
727,14
728,12
729,12
730,12
731,12
732,19
733,7
734,12
735,18
736,18
737,3
738,9
739,6
740,12
741,14
742,18
743,19
744,7
745,18
746,19
747,9
748,17
749,3
750,7
751,9
752,12
753,3
754,18
755,14
756,9
757,3
758,12
759,19
760,14
761,18
762,14
763,17
764,9
765,9
766,14
767,18
768,7
769,17
770,12
771,17
772,3
773,12
774,3
775,18
776,18
777,17
778,17
779,18
780,9
781,12
782,19
783,9
784,14
785,18
786,18
787,14
788,19
789,12
790,3
791,12
792,3
793,19
794,3
795,14
796,7
797,18
798,17
799,17
800,19
801,12
802,14
803,18
804,7
805,7
806,12
807,7
808,19
809,9
810,18
811,12
812,12
813,14
814,18
815,17
816,12
817,7
818,3
819,18
820,3
821,14
822,12
823,12
824,18
825,14
826,9
827,19
828,17
829,17
830,12
831,12
832,12
833,3
834,2
835,18
836,3
837,18
838,12
839,12
840,12
841,14
842,12
843,18
844,14
845,18
846,18
847,12
848,18
849,18
850,3
851,3
852,18
853,3
854,17
855,12
856,18
857,12
858,3
859,3
860,17
861,12
862,18
863,14
864,12
865,19
866,9
867,18
868,19
869,14
870,3
871,3
872,14
873,3
874,12
875,19
876,14
877,19
878,19
879,18
880,14
881,12
882,17
883,12
884,14
885,12
886,12
887,7
888,9
889,7
890,3
891,17
892,3
893,19
894,3
895,12
896,14
897,18
898,19
899,19
900,18
901,18
902,18
903,12
904,3
905,3
906,12
907,12
908,12
909,18
910,12
911,9
912,12
913,12
914,17
915,17
916,18
917,18
918,3
919,9
920,18
921,12
922,18
923,18
924,19
925,12
926,18
927,17
928,12
929,18
930,12
931,17
932,12
933,18
934,19
935,14
936,3
937,12
938,14
939,19
940,12
941,18
942,12
943,18
944,3
945,12
946,18
947,18
948,18
949,18
950,3
951,18
952,9
953,18
954,3
955,19
956,12
957,18
958,18
959,18
960,9
961,18
962,7
963,19
964,3
965,9
966,19
967,7
968,12
969,12
970,12
971,12
972,12
973,3
974,9
975,3
976,14
977,3
978,14
979,12
980,12
981,19
982,19
983,19
984,9
985,12
986,12
987,18
988,17
989,12
990,7
991,18
992,3
993,19
994,12
995,7
996,18
997,17
998,9
999,14
1000,3
1001,14
1002,19
1003,18
1004,17
1005,18
1006,3
1007,18
1008,3
1009,19
1010,12
1011,12
1012,19
1013,19
1014,12
1015,18
1016,12
1017,12
1018,3
1019,12
1020,14
1021,19
1022,19
1023,17
1024,12
1025,12
1026,7
1027,7
1028,9
1029,18
1030,12
1031,18
1032,18
1033,12
1034,14
1035,12
1036,19
1037,12
1038,17
1039,19
1040,9
1041,18
1042,18
1043,12
1044,12
1045,7
1046,4
1047,17
1048,12
1049,3
1050,18
1051,18
1052,1
1053,3
1054,14
1055,3
1056,19
1057,9
1058,9
1059,7
1060,9
1061,19
1062,17
1063,12
1064,17
1065,18
1066,17
1067,12
1068,12
1069,17
1070,18
1071,18
1072,18
1073,14
1074,3
1075,3
1076,19
1077,3
1078,18
1079,19
1080,18
1081,18
1082,12
1083,12
1084,14
1085,17
1086,12
1087,9
1088,12
1089,18
1090,18
1091,18
1092,18
1093,19
1094,9
1095,18
1096,18
1097,12
1098,12
1099,7
1100,18
1101,12
1102,12
1103,3
1104,18
1105,17
1106,19
1107,12
1108,3
1109,3
1110,18
1111,12
1112,18
1113,12
1114,12
1115,3
1116,3
1117,9
1118,12
1119,12
1120,18
1121,12
1122,19
1123,3
1124,19
1125,3
1126,7
1127,12
1128,19
1129,7
1130,19
1131,18
1132,18
1133,12
1134,3
1135,18
1136,12
1137,18
1138,17
1139,17
1140,18
1141,18
1142,19
1143,19
1144,9
1145,18
1146,9
1147,12
1148,12
1149,9
1150,12
1151,12
1152,18
1153,12
1154,7
1155,14
1156,19
1157,12
1158,14
1159,9
1160,18
1161,18
1162,19
1163,18
1164,7
1165,9
1166,3
1167,19
1168,18
1169,19
1170,12
1171,12
1172,7
1173,19
1174,12
1175,17
1176,19
1177,17
1178,3
1179,18
1180,14
1181,18
1182,9
1183,9
1184,17
1185,12
1186,14
1187,19
1188,7
1189,14
1190,9
1191,3
1192,18
1193,19
1194,18
1195,3
1196,3
1197,17
1198,12
1199,3
1200,18
1201,7
1202,19
1203,3
1204,14
1205,17
1206,3
1207,19
1208,3
1209,12
1210,12
1211,17
1212,7
1213,7
1214,19
1215,19
1216,17
1217,12
1218,18
1219,3
1220,14
1221,7
1222,18
1223,7
1224,12
1225,12
1226,18
1227,19
1228,18
1229,4
1230,19
1231,9
1232,17
1233,17
1234,12
1235,17
1236,19
1237,18
1238,9
1239,3
1240,12
1241,18
1242,7
1243,12
1244,9
1245,14
1246,14
1247,18
1248,19
1249,9
1250,14
1251,9
1252,19
1253,3
1254,17
1255,19
1256,3
1257,18
1258,3
1259,17
1260,18
1261,9
1262,12
1263,9
1264,12
1265,3
1266,3
1267,18
1268,18
1269,19
1270,18
1271,7
1272,19
1273,12
1274,14
1275,14
1276,12
1277,12
1278,3
1279,14
1280,12
1281,9
1282,17
1283,18
1284,3
1285,12
1286,19
1287,9
1288,17
1289,18
1290,19
1291,18
1292,19
1293,17
1294,9
1295,7
1296,18
1297,18
1298,9
1299,18
1300,19
1301,7
1302,12
1303,12
1304,14
1305,12
1306,18
1307,14
1308,18
1309,19
1310,19
1311,9
1312,18
1313,12
1314,7
1315,19
1316,9
1317,12
1318,17
1319,9
1320,14
1321,14
1322,12
1323,7
1324,3
1325,18
1326,19
1327,18
1328,7
1329,18
1330,17
1331,12
1332,12
1333,9
1334,19
1335,3
1336,12
1337,3
1338,18
1339,12
1340,12
1341,19
1342,9
1343,14
1344,17
1345,14
1346,17
1347,19
1348,18
1349,3
1350,17
1351,12
1352,7
1353,3
1354,3
1355,14
1356,12
1357,18
1358,9
1359,3
1360,7
1361,12
1362,19
1363,7
1364,14
1365,19
1366,18
1367,7
1368,19
1369,14
1370,12
1371,12
1372,19
1373,12
1374,14
1375,3
1376,3
1377,3
1378,18
1379,9
1380,19
1381,12
1382,19
1383,19
1384,14
1385,9
1386,17
1387,17
1388,9
1389,7
1390,7
1391,12
1392,9
1393,18
1394,18
1395,9
1396,19
1397,14
1398,17
1399,19
1400,17
1401,19
1402,2
1403,12
1404,18
1405,12
1406,12
1407,9
1408,18
1409,3
1410,17
1411,18
1412,14
1413,3
1414,12
1415,14
1416,18
1417,12
1418,12
1419,14
1420,9
1421,19
1422,17
1423,12
1424,12
1425,17
1426,3
1427,14
1428,12
1429,19
1430,19
1431,18
1432,18
1433,3
1434,9
1435,18
1436,17
1437,17
1438,7
1439,9
1440,12
1441,12
1442,12
1443,12
1444,18
1445,12
1446,17
1447,9
1448,9
1449,4
1450,18
1451,9
1452,18
1453,3
1454,3
1455,3
1456,9
1457,18
1458,12
1459,18
1460,3
1461,12
1462,7
1463,14
1464,19
1465,18
1466,3
1467,3
1468,19
1469,12
1470,9
1471,12
1472,18
1473,12
1474,3
1475,12
1476,9
1477,17
1478,18
1479,7
1480,7
1481,7
1482,18
1483,3
1484,14
1485,19
1486,14
1487,7
1488,19
1489,12
1490,14
1491,17
1492,18
1493,14
1494,9
1495,14
1496,3
1497,3
1498,18
1499,9
1500,9
1501,3
1502,14
1503,18
1504,18
1505,12
1506,7
1507,3
1508,9
1509,18
1510,17
1511,18
1512,14
1513,18
1514,12
1515,9
1516,14
1517,7
1518,14
1519,19
1520,12
1521,3
1522,12
1523,12
1524,18
1525,3
1526,12
1527,18
1528,14
1529,18
1530,12
1531,14
1532,3
1533,17
1534,14
1535,6
1536,14
1537,12
1538,7
1539,14
1540,9
1541,4
1542,3
1543,12
1544,18
1545,19
1546,3
1547,3
1548,14
1549,7
1550,19
1551,3
1552,17
1553,12
1554,19
1555,3
1556,12
1557,12
1558,14
1559,12
1560,3
1561,12
1562,12
1563,12
1564,17
1565,19
1566,3
1567,3
1568,3
1569,12
1570,9
1571,3
1572,9
1573,9
1574,7
1575,18
1576,17
1577,7
1578,18
1579,3
1580,12
1581,18
1582,17
1583,19
1584,18
1585,14
1586,14
1587,3
1588,18
1589,9
1590,12
1591,19
1592,14
1593,3
1594,18
1595,12
1596,14
1597,17
1598,12
1599,18
1600,3
1601,17
1602,12
1603,18
1604,3
1605,19
1606,12
1607,17
1608,18
1609,7
1610,3
1611,7
1612,9
1613,3
1614,12
1615,9
1616,18
1617,3
1618,19
1619,19
1620,12
1621,3
1622,9
1623,19
1624,12
1625,3
1626,12
1627,9
1628,19
1629,18
1630,18
1631,12
1632,19
1633,12
1634,18
1635,7
1636,18
1637,17
1638,12
1639,18
1640,9
1641,19
1642,14
1643,7
1644,12
1645,17
1646,12
1647,18
1648,18
1649,19
1650,12
1651,7
1652,3
1653,3
1654,3
1655,14
1656,14
1657,18
1658,12
1659,12
1660,9
1661,12
1662,19
1663,3
1664,9
1665,9
1666,12
1667,19
1668,3
1669,12
1670,7
1671,12
1672,12
1673,9
1674,18
1675,18
1676,3
1677,9
1678,14
1679,9
1680,14
1681,18
1682,12
1683,18
1684,18
1685,7
1686,17
1687,19
1688,3
1689,9
1690,12
1691,18
1692,12
1693,17
1694,3
1695,19
1696,12
1697,12
1698,3
1699,12
1700,3
1701,19
1702,14
1703,18
1704,19
1705,19
1706,3
1707,19
1708,19
1709,6
1710,19
1711,18
1712,14
1713,18
1714,18
1715,3
1716,17
1717,12
1718,12
1719,3
1720,18
1721,3
1722,17
1723,19
1724,3
1725,14
1726,3
1727,9
1728,19
1729,12
1730,14
1731,18
1732,17
1733,19
1734,19
1735,9
1736,14
1737,14
1738,9
1739,18
1740,12
1741,14
1742,18
1743,18
1744,7
1745,9
1746,18
1747,3
1748,3
1749,12
1750,19
1751,12
1752,14
1753,18
1754,3
1755,12
1756,9
1757,9
1758,7
1759,19
1760,18
1761,18
1762,3
1763,12
1764,18
1765,17
1766,18
1767,19
1768,19
1769,12
1770,3
1771,19
1772,3
1773,19
1774,12
1775,12
1776,7
1777,19
1778,17
1779,17
1780,12
1781,19
1782,14
1783,14
1784,3
1785,12
1786,18
1787,3
1788,18
1789,12
1790,12
1791,19
1792,14
1793,12
1794,14
1795,3
1796,18
1797,17
1798,12
1799,6
1800,9
1801,12
1802,3
1803,7
1804,18
1805,17
1806,12
1807,18
1808,3
1809,12
1810,9
1811,17
1812,3
1813,9
1814,17
1815,3
1816,12
1817,12
1818,19
1819,12
1820,14
1821,7
1822,3
1823,9
1824,3
1825,18
1826,3
1827,12
1828,19
1829,18
1830,18
1831,3
1832,17
1833,3
1834,12
1835,19
1836,12
1837,12
1838,19
1839,12
1840,3
1841,14
1842,19
1843,18
1844,18
1845,3
1846,19
1847,9
1848,12
1849,19
1850,12
1851,12
1852,18
1853,3
1854,14
1855,18
1856,3
1857,12
1858,12
1859,18
1860,18
1861,14
1862,17
1863,18
1864,17
1865,3
1866,12
1867,18
1868,17
1869,12
1870,9
1871,3
1872,7
1873,14
1874,7
1875,12
1876,3
1877,3
1878,12
1879,9
1880,12
1881,17
1882,14
1883,14
1884,3
1885,14
1886,19
1887,17
1888,18
1889,12
1890,3
1891,18
1892,7
1893,18
1894,12
1895,3
1896,18
1897,18
1898,3
1899,14
1900,14
1901,3
1902,17
1903,3
1904,9
1905,18
1906,19
1907,3
1908,18
1909,9
1910,18
1911,19
1912,12
1913,18
1914,3
1915,18
1916,14
1917,14
1918,19
1919,17
1920,18
1921,12
1922,9
1923,12
1924,12
1925,3
1926,19
1927,17
1928,18
1929,12
1930,19
1931,18
1932,18
1933,9
1934,14
1935,9
1936,18
1937,19
1938,14
1939,19
1940,9
1941,3
1942,7
1943,12
1944,12
1945,14
1946,14
1947,3
1948,3
1949,18
1950,12
1951,19
1952,18
1953,14
1954,9
1955,18
1956,14
1957,17
1958,7
1959,17
1960,14
1961,12
1962,19
1963,18
1964,17
1965,18
1966,12
1967,3
1968,12
1969,9
1970,18
1971,3
1972,18
1973,17
1974,12
1975,17
1976,14
1977,18
1978,18
1979,17
1980,18
1981,17
1982,12
1983,18
1984,9
1985,3
1986,12
1987,18
1988,14
1989,17
1990,14
1991,18
1992,14
1993,12
1994,9
1995,19
1996,14
1997,18
1998,9
1999,17
2000,3
2001,9
2002,18
2003,12
2004,14
2005,12
2006,19
2007,7
2008,3
2009,18
2010,19
2011,14
2012,7
2013,12
2014,14
2015,7
2016,18
2017,17
2018,3
2019,18
2020,14
2021,9
2022,18
2023,18
2024,9
2025,12
2026,3
2027,12
2028,9
2029,12
2030,18
2031,18
2032,18
2033,18
2034,12
2035,7
2036,4
2037,12
2038,18
2039,19
2040,19
2041,12
2042,14
2043,3
2044,3
2045,9
2046,19
2047,7
2048,9
2049,18
2050,19
2051,18
2052,9
2053,18
2054,3
2055,12
2056,3
2057,18
2058,9
2059,3
2060,14
2061,19
2062,3
2063,14
2064,12
2065,18
2066,18
2067,12
2068,12
2069,3
2070,17
2071,17
2072,18
2073,12
2074,17
2075,9
2076,9
2077,12
2078,18
2079,14
2080,3
2081,12
2082,3
2083,19
2084,9
2085,18
2086,12
2087,18
2088,14
2089,14
2090,12
2091,12
2092,18
2093,9
2094,14
2095,9
2096,12
2097,12
2098,19
2099,12
2100,12
2101,12
2102,3
2103,18
2104,9
2105,17
2106,17
2107,7
2108,12
2109,17
2110,9
2111,7
2112,3
2113,3
2114,12
2115,17
2116,18
2117,14
2118,19
2119,12
2120,14
2121,17
2122,9
2123,18
2124,12
2125,18
2126,18
2127,7
2128,18
2129,3
2130,14
2131,17
2132,3
2133,12
2134,7
2135,18
2136,14
2137,18
2138,4
2139,12
2140,18
2141,19
2142,12
2143,9
2144,18
2145,18
2146,3
2147,18
2148,12
2149,7
2150,14
2151,3
2152,12
2153,18
2154,12
2155,18
2156,7
2157,17
2158,14
2159,19
2160,19
2161,18
2162,12
2163,12
2164,9
2165,9
2166,14
2167,14
2168,18
2169,12
2170,18
2171,14
2172,3
2173,12
2174,3
2175,14
2176,3
2177,3
2178,3
2179,18
2180,12
2181,12
2182,12
2183,14
2184,4
2185,19
2186,19
2187,12
2188,17
2189,14
2190,18
2191,18
2192,18
2193,3
2194,14
2195,19
2196,7
2197,18
2198,14
2199,18
2200,18
2201,3
2202,19
2203,18
2204,3
2205,19
2206,12
2207,18
2208,12
2209,18
2210,1
2211,18
2212,3
2213,19
2214,18
2215,18
2216,9
2217,3
2218,3
2219,18
2220,12
2221,19
2222,3
2223,12
2224,14
2225,9
2226,19
2227,17
2228,17
2229,7
2230,12
2231,12
2232,14
2233,17
2234,3
2235,12
2236,7
2237,14
2238,12
2239,18
2240,18
2241,17
2242,14
2243,18
2244,14
2245,18
2246,7
2247,12
2248,12
2249,18
2250,12
2251,18
2252,12
2253,14
2254,14
2255,18
2256,3
2257,19
2258,9
2259,19
2260,18
2261,12
2262,19
2263,18
2264,12
2265,19
2266,12
2267,19
2268,18
2269,17
2270,12
2271,14
2272,3
2273,17
2274,7
2275,3
2276,14
2277,12
2278,14
2279,19
2280,9
2281,18
2282,9
2283,17
2284,18
2285,19
2286,7
2287,19
2288,19
2289,14
2290,3
2291,17
2292,18
2293,12
2294,19
2295,17
2296,18
2297,12
2298,18
2299,18
2300,12
2301,18
2302,19
2303,18
2304,18
2305,12
2306,18
2307,19
2308,18
2309,3
2310,3
2311,3
2312,3
2313,12
2314,18
2315,9
2316,18
2317,9
2318,9
2319,12
2320,18
2321,18
2322,17
2323,12
2324,18
2325,19
2326,14
2327,18
2328,3
2329,12
2330,17
2331,12
2332,14
2333,19
2334,3
2335,12
2336,17
2337,12
2338,19
2339,3
2340,12
2341,9
2342,12
2343,12
2344,3
2345,18
2346,9
2347,19
2348,18
2349,12
2350,18
2351,3
2352,18
2353,3
2354,19
2355,18
2356,3
2357,9
2358,12
2359,3
2360,9
2361,3
2362,18
2363,14
2364,12
2365,19
2366,17
2367,12
2368,18
2369,12
2370,12
2371,17
2372,19
2373,12
2374,7
2375,18
2376,19
2377,19
2378,3
2379,19
2380,18
2381,3
2382,12
2383,3
2384,19
2385,9
2386,18
2387,12
2388,14
2389,14
2390,19
2391,19
2392,12
2393,17
2394,12
2395,3
2396,14
2397,3
2398,19
2399,3
2400,3
2401,14
2402,12
2403,18
2404,12
2405,18
2406,9
2407,9
2408,19
2409,9
2410,19
2411,19
2412,12
2413,3
2414,18
2415,17
2416,7
2417,12
2418,18
2419,12
2420,3
2421,14
2422,18
2423,17
2424,3
2425,3
2426,17
2427,17
2428,17
2429,19
2430,3
2431,19
2432,12
2433,3
2434,18
2435,19
2436,18
2437,12
2438,12
2439,14
2440,18
2441,18
2442,18
2443,17
2444,12
2445,14
2446,17
2447,12
2448,19
2449,18
2450,7
2451,7
2452,12
2453,17
2454,14
2455,12
2456,18
2457,19
2458,12
2459,12
2460,14
2461,3
2462,19
2463,17
2464,3
2465,19
2466,19
2467,3
2468,12
2469,9
2470,18
2471,9
2472,7
2473,14
2474,9
2475,12
2476,19
2477,9
2478,9
2479,12
2480,9
2481,3
2482,12
2483,18
2484,9
2485,18
2486,18
2487,3
2488,17
2489,3
2490,14
2491,18
2492,1
2493,3
2494,3
2495,19
2496,9
2497,18
2498,3
2499,9
2500,12
2501,14
2502,17
2503,7
2504,12
2505,3
2506,17
2507,7
2508,19
2509,3
2510,14
2511,19
2512,12
2513,9
2514,3
2515,18
2516,18
2517,12
2518,14
2519,3
2520,18
2521,3
2522,3
2523,14
2524,12
2525,9
2526,3
2527,14
2528,18
2529,19
2530,17
2531,17
2532,18
2533,12
2534,9
2535,18
2536,14
2537,18
2538,18
2539,18
2540,18
2541,9
2542,3
2543,18
2544,18
2545,17
2546,14
2547,18
2548,7
2549,3
2550,12
2551,19
2552,3
2553,18
2554,3
2555,7
2556,9
2557,3
2558,7
2559,19
2560,19
2561,18
2562,17
2563,18
2564,18
2565,19
2566,18
2567,18
2568,17
2569,14
2570,18
2571,19
2572,9
2573,18
2574,17
2575,18
2576,12
2577,18
2578,18
2579,19
2580,18
2581,9
2582,14
2583,18
2584,12
2585,18
2586,14
2587,14
2588,3
2589,12
2590,1
2591,17
2592,9
2593,9
2594,19
2595,19
2596,7
2597,12
2598,9
2599,14
2600,17
2601,18
2602,12
2603,3
2604,12
2605,7
2606,17
2607,14
2608,7
2609,18
2610,18
2611,14
2612,18
2613,17
2614,9
2615,9
2616,14
2617,9
2618,12
2619,19
2620,18
2621,9
2622,12
2623,17
2624,18
2625,3
2626,3
2627,3
2628,3
2629,14
2630,12
2631,3
2632,17
2633,3
2634,14
2635,3
2636,3
2637,14
2638,12
2639,19
2640,14
2641,18
2642,14
2643,3
2644,12
2645,7
2646,12
2647,12
2648,3
2649,18
2650,9
2651,18
2652,12
2653,9
2654,19
2655,12
2656,3
2657,12
2658,18
2659,3
2660,12
2661,7
2662,18
2663,12
2664,14
2665,19
2666,14
2667,9
2668,9
2669,14
2670,17
2671,12
2672,18
2673,9
2674,18
2675,9
2676,9
2677,18
2678,12
2679,19
2680,9
2681,3
2682,3
2683,12
2684,12
2685,3
2686,12
2687,18
2688,3
2689,12
2690,9
2691,18
2692,18
2693,7
2694,9
2695,9
2696,17
2697,7
2698,3
2699,3
2700,18
2701,12
2702,18
2703,3
2704,12
2705,18
2706,18
2707,18
2708,19
2709,3
2710,4
2711,17
2712,18
2713,19
2714,14
2715,19
2716,17
2717,3
2718,18
2719,19
2720,18
2721,3
2722,9
2723,14
2724,18
2725,19
2726,7
2727,17
2728,12
2729,3
2730,3
2731,9
2732,3
2733,12
2734,12
2735,9
2736,18
2737,18
2738,12
2739,18
2740,18
2741,18
2742,17
2743,3
2744,9
2745,17
2746,12
2747,12
2748,18
2749,12
2750,3
2751,12
2752,12
2753,9
2754,17
2755,1
2756,9
2757,7
2758,14
2759,12
2760,3
2761,17
2762,9
2763,3
2764,3
2765,7
2766,12
2767,9
2768,12
2769,9
2770,9
2771,18
2772,12
2773,19
2774,14
2775,12
2776,19
2777,12
2778,3
2779,7
2780,3
2781,12
2782,3
2783,19
2784,12
2785,12
2786,18
2787,3
2788,18
2789,14
2790,9
2791,3
2792,18
2793,3
2794,18
2795,12
2796,17
2797,14
2798,19
2799,12
2800,3
